0.0000000000 0.0000000000 0.0000000000 0.0000000000 0.0000000000 0.0000000000 0.0000000000 1.0000000000
0.0000000000 0.0000000000 0.0000000000 0.0000000000 0.0000000000 0.0000000000 0.3333333333 0.6666666667
0.0000000000 0.0000000000 0.0000000000 0.0000000000 0.0000000000 0.0000000000 0.6666666667 0.3333333333
0.0000000000 0.0000000000 0.0000000000 0.0000000000 0.0000000000 0.0000000000 1.0000000000 0.0000000000
0.0000000000 0.0000000000 0.0000000000 0.0000000000 0.0000000000 0.3333333333 0.0000000000 0.6666666667
0.0000000000 0.0000000000 0.0000000000 0.0000000000 0.0000000000 0.3333333333 0.3333333333 0.3333333333
0.0000000000 0.0000000000 0.0000000000 0.0000000000 0.0000000000 0.3333333333 0.6666666667 0.0000000000
0.0000000000 0.0000000000 0.0000000000 0.0000000000 0.0000000000 0.6666666667 0.0000000000 0.3333333333
0.0000000000 0.0000000000 0.0000000000 0.0000000000 0.0000000000 0.6666666667 0.3333333333 0.0000000000
0.0000000000 0.0000000000 0.0000000000 0.0000000000 0.0000000000 1.0000000000 0.0000000000 0.0000000000
0.0000000000 0.0000000000 0.0000000000 0.0000000000 0.3333333333 0.0000000000 0.0000000000 0.6666666667
0.0000000000 0.0000000000 0.0000000000 0.0000000000 0.3333333333 0.0000000000 0.3333333333 0.3333333333
0.0000000000 0.0000000000 0.0000000000 0.0000000000 0.3333333333 0.0000000000 0.6666666667 0.0000000000
0.0000000000 0.0000000000 0.0000000000 0.0000000000 0.3333333333 0.3333333333 0.0000000000 0.3333333333
0.0000000000 0.0000000000 0.0000000000 0.0000000000 0.3333333333 0.3333333333 0.3333333333 0.0000000000
0.0000000000 0.0000000000 0.0000000000 0.0000000000 0.3333333333 0.6666666667 0.0000000000 0.0000000000
0.0000000000 0.0000000000 0.0000000000 0.0000000000 0.6666666667 0.0000000000 0.0000000000 0.3333333333
0.0000000000 0.0000000000 0.0000000000 0.0000000000 0.6666666667 0.0000000000 0.3333333333 0.0000000000
0.0000000000 0.0000000000 0.0000000000 0.0000000000 0.6666666667 0.3333333333 0.0000000000 0.0000000000
0.0000000000 0.0000000000 0.0000000000 0.0000000000 1.0000000000 0.0000000000 0.0000000000 0.0000000000
0.0000000000 0.0000000000 0.0000000000 0.3333333333 0.0000000000 0.0000000000 0.0000000000 0.6666666667
0.0000000000 0.0000000000 0.0000000000 0.3333333333 0.0000000000 0.0000000000 0.3333333333 0.3333333333
0.0000000000 0.0000000000 0.0000000000 0.3333333333 0.0000000000 0.0000000000 0.6666666667 0.0000000000
0.0000000000 0.0000000000 0.0000000000 0.3333333333 0.0000000000 0.3333333333 0.0000000000 0.3333333333
0.0000000000 0.0000000000 0.0000000000 0.3333333333 0.0000000000 0.3333333333 0.3333333333 0.0000000000
0.0000000000 0.0000000000 0.0000000000 0.3333333333 0.0000000000 0.6666666667 0.0000000000 0.0000000000
0.0000000000 0.0000000000 0.0000000000 0.3333333333 0.3333333333 0.0000000000 0.0000000000 0.3333333333
0.0000000000 0.0000000000 0.0000000000 0.3333333333 0.3333333333 0.0000000000 0.3333333333 0.0000000000
0.0000000000 0.0000000000 0.0000000000 0.3333333333 0.3333333333 0.3333333333 0.0000000000 0.0000000000
0.0000000000 0.0000000000 0.0000000000 0.3333333333 0.6666666667 0.0000000000 0.0000000000 0.0000000000
0.0000000000 0.0000000000 0.0000000000 0.6666666667 0.0000000000 0.0000000000 0.0000000000 0.3333333333
0.0000000000 0.0000000000 0.0000000000 0.6666666667 0.0000000000 0.0000000000 0.3333333333 0.0000000000
0.0000000000 0.0000000000 0.0000000000 0.6666666667 0.0000000000 0.3333333333 0.0000000000 0.0000000000
0.0000000000 0.0000000000 0.0000000000 0.6666666667 0.3333333333 0.0000000000 0.0000000000 0.0000000000
0.0000000000 0.0000000000 0.0000000000 1.0000000000 0.0000000000 0.0000000000 0.0000000000 0.0000000000
0.0000000000 0.0000000000 0.3333333333 0.0000000000 0.0000000000 0.0000000000 0.0000000000 0.6666666667
0.0000000000 0.0000000000 0.3333333333 0.0000000000 0.0000000000 0.0000000000 0.3333333333 0.3333333333
0.0000000000 0.0000000000 0.3333333333 0.0000000000 0.0000000000 0.0000000000 0.6666666667 0.0000000000
0.0000000000 0.0000000000 0.3333333333 0.0000000000 0.0000000000 0.3333333333 0.0000000000 0.3333333333
0.0000000000 0.0000000000 0.3333333333 0.0000000000 0.0000000000 0.3333333333 0.3333333333 0.0000000000
0.0000000000 0.0000000000 0.3333333333 0.0000000000 0.0000000000 0.6666666667 0.0000000000 0.0000000000
0.0000000000 0.0000000000 0.3333333333 0.0000000000 0.3333333333 0.0000000000 0.0000000000 0.3333333333
0.0000000000 0.0000000000 0.3333333333 0.0000000000 0.3333333333 0.0000000000 0.3333333333 0.0000000000
0.0000000000 0.0000000000 0.3333333333 0.0000000000 0.3333333333 0.3333333333 0.0000000000 0.0000000000
0.0000000000 0.0000000000 0.3333333333 0.0000000000 0.6666666667 0.0000000000 0.0000000000 0.0000000000
0.0000000000 0.0000000000 0.3333333333 0.3333333333 0.0000000000 0.0000000000 0.0000000000 0.3333333333
0.0000000000 0.0000000000 0.3333333333 0.3333333333 0.0000000000 0.0000000000 0.3333333333 0.0000000000
0.0000000000 0.0000000000 0.3333333333 0.3333333333 0.0000000000 0.3333333333 0.0000000000 0.0000000000
0.0000000000 0.0000000000 0.3333333333 0.3333333333 0.3333333333 0.0000000000 0.0000000000 0.0000000000
0.0000000000 0.0000000000 0.3333333333 0.6666666667 0.0000000000 0.0000000000 0.0000000000 0.0000000000
0.0000000000 0.0000000000 0.6666666667 0.0000000000 0.0000000000 0.0000000000 0.0000000000 0.3333333333
0.0000000000 0.0000000000 0.6666666667 0.0000000000 0.0000000000 0.0000000000 0.3333333333 0.0000000000
0.0000000000 0.0000000000 0.6666666667 0.0000000000 0.0000000000 0.3333333333 0.0000000000 0.0000000000
0.0000000000 0.0000000000 0.6666666667 0.0000000000 0.3333333333 0.0000000000 0.0000000000 0.0000000000
0.0000000000 0.0000000000 0.6666666667 0.3333333333 0.0000000000 0.0000000000 0.0000000000 0.0000000000
0.0000000000 0.0000000000 1.0000000000 0.0000000000 0.0000000000 0.0000000000 0.0000000000 0.0000000000
0.0000000000 0.3333333333 0.0000000000 0.0000000000 0.0000000000 0.0000000000 0.0000000000 0.6666666667
0.0000000000 0.3333333333 0.0000000000 0.0000000000 0.0000000000 0.0000000000 0.3333333333 0.3333333333
0.0000000000 0.3333333333 0.0000000000 0.0000000000 0.0000000000 0.0000000000 0.6666666667 0.0000000000
0.0000000000 0.3333333333 0.0000000000 0.0000000000 0.0000000000 0.3333333333 0.0000000000 0.3333333333
0.0000000000 0.3333333333 0.0000000000 0.0000000000 0.0000000000 0.3333333333 0.3333333333 0.0000000000
0.0000000000 0.3333333333 0.0000000000 0.0000000000 0.0000000000 0.6666666667 0.0000000000 0.0000000000
0.0000000000 0.3333333333 0.0000000000 0.0000000000 0.3333333333 0.0000000000 0.0000000000 0.3333333333
0.0000000000 0.3333333333 0.0000000000 0.0000000000 0.3333333333 0.0000000000 0.3333333333 0.0000000000
0.0000000000 0.3333333333 0.0000000000 0.0000000000 0.3333333333 0.3333333333 0.0000000000 0.0000000000
0.0000000000 0.3333333333 0.0000000000 0.0000000000 0.6666666667 0.0000000000 0.0000000000 0.0000000000
0.0000000000 0.3333333333 0.0000000000 0.3333333333 0.0000000000 0.0000000000 0.0000000000 0.3333333333
0.0000000000 0.3333333333 0.0000000000 0.3333333333 0.0000000000 0.0000000000 0.3333333333 0.0000000000
0.0000000000 0.3333333333 0.0000000000 0.3333333333 0.0000000000 0.3333333333 0.0000000000 0.0000000000
0.0000000000 0.3333333333 0.0000000000 0.3333333333 0.3333333333 0.0000000000 0.0000000000 0.0000000000
0.0000000000 0.3333333333 0.0000000000 0.6666666667 0.0000000000 0.0000000000 0.0000000000 0.0000000000
0.0000000000 0.3333333333 0.3333333333 0.0000000000 0.0000000000 0.0000000000 0.0000000000 0.3333333333
0.0000000000 0.3333333333 0.3333333333 0.0000000000 0.0000000000 0.0000000000 0.3333333333 0.0000000000
0.0000000000 0.3333333333 0.3333333333 0.0000000000 0.0000000000 0.3333333333 0.0000000000 0.0000000000
0.0000000000 0.3333333333 0.3333333333 0.0000000000 0.3333333333 0.0000000000 0.0000000000 0.0000000000
0.0000000000 0.3333333333 0.3333333333 0.3333333333 0.0000000000 0.0000000000 0.0000000000 0.0000000000
0.0000000000 0.3333333333 0.6666666667 0.0000000000 0.0000000000 0.0000000000 0.0000000000 0.0000000000
0.0000000000 0.6666666667 0.0000000000 0.0000000000 0.0000000000 0.0000000000 0.0000000000 0.3333333333
0.0000000000 0.6666666667 0.0000000000 0.0000000000 0.0000000000 0.0000000000 0.3333333333 0.0000000000
0.0000000000 0.6666666667 0.0000000000 0.0000000000 0.0000000000 0.3333333333 0.0000000000 0.0000000000
0.0000000000 0.6666666667 0.0000000000 0.0000000000 0.3333333333 0.0000000000 0.0000000000 0.0000000000
0.0000000000 0.6666666667 0.0000000000 0.3333333333 0.0000000000 0.0000000000 0.0000000000 0.0000000000
0.0000000000 0.6666666667 0.3333333333 0.0000000000 0.0000000000 0.0000000000 0.0000000000 0.0000000000
0.0000000000 1.0000000000 0.0000000000 0.0000000000 0.0000000000 0.0000000000 0.0000000000 0.0000000000
0.3333333333 0.0000000000 0.0000000000 0.0000000000 0.0000000000 0.0000000000 0.0000000000 0.6666666667
0.3333333333 0.0000000000 0.0000000000 0.0000000000 0.0000000000 0.0000000000 0.3333333333 0.3333333333
0.3333333333 0.0000000000 0.0000000000 0.0000000000 0.0000000000 0.0000000000 0.6666666667 0.0000000000
0.3333333333 0.0000000000 0.0000000000 0.0000000000 0.0000000000 0.3333333333 0.0000000000 0.3333333333
0.3333333333 0.0000000000 0.0000000000 0.0000000000 0.0000000000 0.3333333333 0.3333333333 0.0000000000
0.3333333333 0.0000000000 0.0000000000 0.0000000000 0.0000000000 0.6666666667 0.0000000000 0.0000000000
0.3333333333 0.0000000000 0.0000000000 0.0000000000 0.3333333333 0.0000000000 0.0000000000 0.3333333333
0.3333333333 0.0000000000 0.0000000000 0.0000000000 0.3333333333 0.0000000000 0.3333333333 0.0000000000
0.3333333333 0.0000000000 0.0000000000 0.0000000000 0.3333333333 0.3333333333 0.0000000000 0.0000000000
0.3333333333 0.0000000000 0.0000000000 0.0000000000 0.6666666667 0.0000000000 0.0000000000 0.0000000000
0.3333333333 0.0000000000 0.0000000000 0.3333333333 0.0000000000 0.0000000000 0.0000000000 0.3333333333
0.3333333333 0.0000000000 0.0000000000 0.3333333333 0.0000000000 0.0000000000 0.3333333333 0.0000000000
0.3333333333 0.0000000000 0.0000000000 0.3333333333 0.0000000000 0.3333333333 0.0000000000 0.0000000000
0.3333333333 0.0000000000 0.0000000000 0.3333333333 0.3333333333 0.0000000000 0.0000000000 0.0000000000
0.3333333333 0.0000000000 0.0000000000 0.6666666667 0.0000000000 0.0000000000 0.0000000000 0.0000000000
0.3333333333 0.0000000000 0.3333333333 0.0000000000 0.0000000000 0.0000000000 0.0000000000 0.3333333333
0.3333333333 0.0000000000 0.3333333333 0.0000000000 0.0000000000 0.0000000000 0.3333333333 0.0000000000
0.3333333333 0.0000000000 0.3333333333 0.0000000000 0.0000000000 0.3333333333 0.0000000000 0.0000000000
0.3333333333 0.0000000000 0.3333333333 0.0000000000 0.3333333333 0.0000000000 0.0000000000 0.0000000000
0.3333333333 0.0000000000 0.3333333333 0.3333333333 0.0000000000 0.0000000000 0.0000000000 0.0000000000
0.3333333333 0.0000000000 0.6666666667 0.0000000000 0.0000000000 0.0000000000 0.0000000000 0.0000000000
0.3333333333 0.3333333333 0.0000000000 0.0000000000 0.0000000000 0.0000000000 0.0000000000 0.3333333333
0.3333333333 0.3333333333 0.0000000000 0.0000000000 0.0000000000 0.0000000000 0.3333333333 0.0000000000
0.3333333333 0.3333333333 0.0000000000 0.0000000000 0.0000000000 0.3333333333 0.0000000000 0.0000000000
0.3333333333 0.3333333333 0.0000000000 0.0000000000 0.3333333333 0.0000000000 0.0000000000 0.0000000000
0.3333333333 0.3333333333 0.0000000000 0.3333333333 0.0000000000 0.0000000000 0.0000000000 0.0000000000
0.3333333333 0.3333333333 0.3333333333 0.0000000000 0.0000000000 0.0000000000 0.0000000000 0.0000000000
0.3333333333 0.6666666667 0.0000000000 0.0000000000 0.0000000000 0.0000000000 0.0000000000 0.0000000000
0.6666666667 0.0000000000 0.0000000000 0.0000000000 0.0000000000 0.0000000000 0.0000000000 0.3333333333
0.6666666667 0.0000000000 0.0000000000 0.0000000000 0.0000000000 0.0000000000 0.3333333333 0.0000000000
0.6666666667 0.0000000000 0.0000000000 0.0000000000 0.0000000000 0.3333333333 0.0000000000 0.0000000000
0.6666666667 0.0000000000 0.0000000000 0.0000000000 0.3333333333 0.0000000000 0.0000000000 0.0000000000
0.6666666667 0.0000000000 0.0000000000 0.3333333333 0.0000000000 0.0000000000 0.0000000000 0.0000000000
0.6666666667 0.0000000000 0.3333333333 0.0000000000 0.0000000000 0.0000000000 0.0000000000 0.0000000000
0.6666666667 0.3333333333 0.0000000000 0.0000000000 0.0000000000 0.0000000000 0.0000000000 0.0000000000
1.0000000000 0.0000000000 0.0000000000 0.0000000000 0.0000000000 0.0000000000 0.0000000000 0.0000000000
